RCA_countries
…
rca_topics_countries <- topics_prop_country %>% 
  left_join(topics_prop_global, by = c("id")) %>% 
  mutate(RCA = p_country/p_global) %>% 
  select(country,id, sublabel,RCA) %>% 
  arrange(id) %>% 
  mutate(country = toupper(country))

rca_topics_countries %>% 
  pivot_wider(names_from = country, values_from = RCA) %>% 
  arrange(-ES)

# A tibble: 2,843 × 6
      id sublabel                                           AR    NL    ES    ZA
   <dbl> <chr>                                           <dbl> <dbl> <dbl> <dbl>
 1    28 Belle detector; branching fractions; top quar… 11.0   3.40   9.70 0.312
 2  2571 LDM; ATSC 3.0; Layered Division Multiplexing;…  0.497 0      8.31 1.25 
 3  2548 whole-body vibration; vibration training; WBV…  0     0.498  6.59 0.791
 4  2986 necrosis factor-like weak inducer; weak induc…  0     0.803  6.35 0    
 5  1019 hydroxytyrosol; oleuropein; virgin olive oil;…  2.02  0.232  5.87 0.820
 6  3135 hoverflies; Vujic; Merodon; Syrphidae; Dolich…  0     0      5.17 2.92 
 7  2685 SSR markers; wild grapevine; grapevine access…  1.82  0      5.17 0.508
 8  2133 GMI effect; giant magnetoimpedance effect; am…  0.236 0.199  4.93 1.38 
 9   543 yeast species; volatile compounds; aroma; hop…  4.23  0.566  4.83 2.69 
10  1249 fatigue syndrome; fibromyalgia patients; FM p…  0.305 1.87   4.83 0.192
# … with 2,833 more rows
…
